…
``` r
stocks = stocks %>% select(user_id, created_at, status_id, text, screen_name)
stocks
```

    ## # A tibble: 13,000 × 5
    ##    user_id  created_at          status_id           text             screen_name
    ##    <chr>    <dttm>              <chr>               <chr>            <chr>      
    ##  1 14886375 2021-12-14 18:51:59 1470828936305254405 "What’s a stock… Stocktwits 
    ##  2 14886375 2021-12-14 17:21:43 1470806218449072128 "That's some ob… Stocktwits 
    ##  3 14886375 2021-12-14 15:36:11 1470779662607527937 "“There’s no su… Stocktwits 
    ##  4 14886375 2021-12-14 15:31:22 1470778448650067974 "👀 https://t.c… Stocktwits 
    ##  5 14886375 2021-12-14 15:20:54 1470775815810035722 "Why is Dogecoi… Stocktwits 
    ##  6 14886375 2021-12-14 13:21:04 1470745659083010049 "What’s on your… Stocktwits 
    ##  7 14886375 2021-12-14 13:20:43 1470745570880991236 "Trending on St… Stocktwits 
    ##  8 14886375 2021-12-13 23:27:54 1470535985385586703 "🚀 $ARNA ascen… Stocktwits 
    ##  9 14886375 2021-12-13 20:41:09 1470494018610118668 "Here are the s… Stocktwits 
    ## 10 14886375 2021-12-13 20:41:07 1470494013765693448 "$LLY will pay … Stocktwits 
    ## # … with 12,990 more rows
…
``` r
stocks1 = stocks %>% unnest_tokens(word, text)  %>% anti_join(stop_words, by="word") %>% filter(str_detect(word,"^[a-z]+$"))
stocks1
```

    ## # A tibble: 142,159 × 6
    ##    user_id  created_at          status_id           screen_name AAPL  word      
    ##    <chr>    <dttm>              <chr>               <chr>       <lgl> <chr>     
    ##  1 14886375 2021-12-14 18:51:59 1470828936305254405 Stocktwits  FALSE stock     
    ##  2 14886375 2021-12-14 18:51:59 1470828936305254405 Stocktwits  FALSE crypto    
    ##  3 14886375 2021-12-14 18:51:59 1470828936305254405 Stocktwits  FALSE regret    
    ##  4 14886375 2021-12-14 18:51:59 1470828936305254405 Stocktwits  FALSE selling   
    ##  5 14886375 2021-12-14 17:21:43 1470806218449072128 Stocktwits  FALSE observati…
    ##  6 14886375 2021-12-14 17:21:43 1470806218449072128 Stocktwits  FALSE https     
    ##  7 14886375 2021-12-14 15:36:11 1470779662607527937 Stocktwits  FALSE coinciden…
    ##  8 14886375 2021-12-14 15:36:11 1470779662607527937 Stocktwits  FALSE op        
    ##  9 14886375 2021-12-14 15:36:11 1470779662607527937 Stocktwits  FALSE https     
    ## 10 14886375 2021-12-14 15:36:11 1470779662607527937 Stocktwits  FALSE uueokwdiry
    ## # … with 142,149 more rows

``` r
stocks1 %>% filter(!word %in% stop_words$word)
```

    ## # A tibble: 142,159 × 6
    ##    user_id  created_at          status_id           screen_name AAPL  word      
    ##    <chr>    <dttm>              <chr>               <chr>       <lgl> <chr>     
    ##  1 14886375 2021-12-14 18:51:59 1470828936305254405 Stocktwits  FALSE stock     
    ##  2 14886375 2021-12-14 18:51:59 1470828936305254405 Stocktwits  FALSE crypto    
    ##  3 14886375 2021-12-14 18:51:59 1470828936305254405 Stocktwits  FALSE regret    
    ##  4 14886375 2021-12-14 18:51:59 1470828936305254405 Stocktwits  FALSE selling   
    ##  5 14886375 2021-12-14 17:21:43 1470806218449072128 Stocktwits  FALSE observati…
    ##  6 14886375 2021-12-14 17:21:43 1470806218449072128 Stocktwits  FALSE https     
    ##  7 14886375 2021-12-14 15:36:11 1470779662607527937 Stocktwits  FALSE coinciden…
    ##  8 14886375 2021-12-14 15:36:11 1470779662607527937 Stocktwits  FALSE op        
    ##  9 14886375 2021-12-14 15:36:11 1470779662607527937 Stocktwits  FALSE https     
    ## 10 14886375 2021-12-14 15:36:11 1470779662607527937 Stocktwits  FALSE uueokwdiry
    ## # … with 142,149 more rows

``` r
stocks1 %>% anti_join(stop_words, by="word") %>% 
  count(word,user_id, AAPL, created_at) %>% bind_tf_idf(word,user_id,n) %>% 
  select(word,user_id, tf_idf, AAPL, created_at) 
```

    ## Warning: A value for tf_idf is negative:
    ##  Input should have exactly one row per document-term combination.

    ## # A tibble: 136,131 × 5
    ##    word        user_id       tf_idf AAPL  created_at         
    ##    <chr>       <chr>          <dbl> <lgl> <dttm>             
    ##  1 aaa         19546277 -0.00000960 FALSE 2021-11-19 17:01:29
    ##  2 aaa         624413   -0.0000112  FALSE 2021-11-16 03:16:56
    ##  3 aaa         624413   -0.0000112  FALSE 2021-11-23 08:34:29
    ##  4 aaa         624413   -0.0000112  FALSE 2021-11-23 09:26:51
    ##  5 aaa         624413   -0.0000112  FALSE 2021-11-25 10:39:24
    ##  6 aaa         624413   -0.0000112  FALSE 2021-11-25 18:36:16
    ##  7 aaacktqzif  19546277  0.0000328  FALSE 2021-11-03 16:16:15
    ##  8 aaand       14886375  0.0000620  FALSE 2021-01-25 15:44:39
    ##  9 aaasinclair 19546277  0.0000328  FALSE 2021-11-19 17:01:29
    ## 10 aadilhzaman 19546277  0.0000328  FALSE 2021-11-04 14:15:17
    ## # … with 136,121 more rows
``` r
stocks2 = stocks1 %>% anti_join(stop_words, by="word") %>% 
  inner_join(nrc_lexicon, by="word") %>% 
  count(user_id,sentiment, created_at, AAPL) %>% 
  pivot_wider(names_from = sentiment, values_from=n,
                values_fill=0)
```

``` r
stocks2 = stocks2 %>% mutate(created_at = as_date(created_at, tz = NULL))
stocks2 = stocks2 %>% convert(int(AAPL))
stocks2
```

    ## # A tibble: 9,856 × 13
    ##    user_id  created_at  AAPL anger anticipation disgust  fear   joy negative
    ##    <chr>    <date>     <int> <int>        <int>   <int> <int> <int>    <int>
    ##  1 14886375 2020-10-27     0     1            0       3     1     0        4
    ##  2 14886375 2020-10-28     0     1            0       0     1     0        2
    ##  3 14886375 2020-10-28     0     1            1       0     0     1        0
    ##  4 14886375 2020-10-29     0     1            0       1     1     0        1
    ##  5 14886375 2020-10-29     1     1            0       1     1     0        1
    ##  6 14886375 2020-10-29     1     1            0       0     0     0        1
    ##  7 14886375 2020-10-29     1     1            0       1     1     0        1
    ##  8 14886375 2020-10-31     0     1            1       0     1     1        0
    ##  9 14886375 2020-11-02     0     1            0       0     0     0        1
    ## 10 14886375 2020-11-02     0     1            0       0     0     0        3
    ## # … with 9,846 more rows, and 4 more variables: positive <int>, sadness <int>,
    ## #   surprise <int>, trust <int>

``` r
stocks3 = stocks2 %>% group_by(created_at) %>% summarise(anger =sum(anger), anticipation=sum(anger), disgust = sum(disgust), fear = sum(fear), joy = sum(joy), negative = sum(negative), positive = sum(positive), sadness = sum(sadness), surprise = sum(surprise), trust = sum(trust), AAPL = mean(AAPL))
stocks3
```

    ## # A tibble: 376 × 12
    ##    created_at anger anticipation disgust  fear   joy negative positive sadness
    ##    <date>     <int>        <int>   <int> <int> <int>    <int>    <int>   <int>
    ##  1 2020-10-27     1            1       3     1     0        4        2       1
    ##  2 2020-10-28     2            2       0     2     3        3       10       3
    ##  3 2020-10-29     4            4       3     5     2        7        8       3
    ##  4 2020-10-30     0            0       0     1     2        1        5       0
    ##  5 2020-10-31     1            1       0     1     2        1        8       0
    ##  6 2020-11-01     0            0       0     0     0        2        0       2
    ##  7 2020-11-02     5            5       1     2     6       10       11       3
    ##  8 2020-11-03     4            4       2     4     0        7        4       1
    ##  9 2020-11-04     2            2       2     1     3        5        9       2
    ## 10 2020-11-05     4            4       2     4     8        9       12       5
    ## # … with 366 more rows, and 3 more variables: surprise <int>, trust <int>,
    ## #   AAPL <dbl>
…
``` r
final2 = final2 %>% drop_na(anger)
final2
```

    ## # A tibble: 375 × 20
    ##    created_at anger anticipation disgust  fear   joy negative positive sadness
    ##    <date>     <int>        <int>   <int> <int> <int>    <int>    <int>   <int>
    ##  1 2020-10-28     1            1       3     1     0        4        2       1
    ##  2 2020-10-29     2            2       0     2     3        3       10       3
    ##  3 2020-10-30     4            4       3     5     2        7        8       3
    ##  4 2020-10-31     0            0       0     1     2        1        5       0
    ##  5 2020-11-01     1            1       0     1     2        1        8       0
    ##  6 2020-11-02     0            0       0     0     0        2        0       2
    ##  7 2020-11-03     5            5       1     2     6       10       11       3
    ##  8 2020-11-04     4            4       2     4     0        7        4       1
    ##  9 2020-11-05     2            2       2     1     3        5        9       2
    ## 10 2020-11-06     4            4       2     4     8        9       12       5
    ## # … with 365 more rows, and 11 more variables: surprise <int>, trust <int>,
    ## #   AAPL <dbl>, date <date>, symbol <chr>, open <dbl>, high <dbl>, low <dbl>,
    ## #   close <dbl>, volume <dbl>, adjusted <dbl>
…
    ## ── Column specification ────────────────────────────────────────────────────────
    ## Delimiter: ","
    ## chr   (1): symbol
    ## dbl  (17): anger, anticipation, disgust, fear, joy, negative, positive, sadn...
    ## date  (2): created_at, date

    ## 
    ## ℹ Use `spec()` to retrieve the full column specification for this data.
    ## ℹ Specify the column types or set `show_col_types = FALSE` to quiet this message.

``` r
stonks
```

    ## # A tibble: 375 × 20
    ##    created_at anger anticipation disgust  fear   joy negative positive sadness
    ##    <date>     <dbl>        <dbl>   <dbl> <dbl> <dbl>    <dbl>    <dbl>   <dbl>
    ##  1 2020-10-28     1            1       3     1     0        4        2       1
    ##  2 2020-10-29     2            2       0     2     3        3       10       3
    ##  3 2020-10-30     4            4       3     5     2        7        8       3
    ##  4 2020-10-31     0            0       0     1     2        1        5       0
    ##  5 2020-11-01     1            1       0     1     2        1        8       0
    ##  6 2020-11-02     0            0       0     0     0        2        0       2
    ##  7 2020-11-03     5            5       1     2     6       10       11       3
    ##  8 2020-11-04     4            4       2     4     0        7        4       1
    ##  9 2020-11-05     2            2       2     1     3        5        9       2
    ## 10 2020-11-06     4            4       2     4     8        9       12       5
    ## # … with 365 more rows, and 11 more variables: surprise <dbl>, trust <dbl>,
    ## #   AAPL <dbl>, date <date>, symbol <chr>, open <dbl>, high <dbl>, low <dbl>,
    ## #   close <dbl>, volume <dbl>, adjusted <dbl>

``` r
#d = stonks  %>%  mutate(across(AAPL, factor))
stonkstemp = stonks %>% filter(!is.na(adjusted))
mean(stonkstemp$adjusted)
```

    ## [1] 135.7202

``` r
stonks = stonks %>% mutate(adjusted = if_na(adjusted, 135.6478))
stonks
```

    ## # A tibble: 375 × 20
    ##    created_at anger anticipation disgust  fear   joy negative positive sadness
    ##    <date>     <dbl>        <dbl>   <dbl> <dbl> <dbl>    <dbl>    <dbl>   <dbl>
    ##  1 2020-10-28     1            1       3     1     0        4        2       1
    ##  2 2020-10-29     2            2       0     2     3        3       10       3
    ##  3 2020-10-30     4            4       3     5     2        7        8       3
    ##  4 2020-10-31     0            0       0     1     2        1        5       0
    ##  5 2020-11-01     1            1       0     1     2        1        8       0
    ##  6 2020-11-02     0            0       0     0     0        2        0       2
    ##  7 2020-11-03     5            5       1     2     6       10       11       3
    ##  8 2020-11-04     4            4       2     4     0        7        4       1
    ##  9 2020-11-05     2            2       2     1     3        5        9       2
    ## 10 2020-11-06     4            4       2     4     8        9       12       5
    ## # … with 365 more rows, and 11 more variables: surprise <dbl>, trust <dbl>,
    ## #   AAPL <dbl>, date <date>, symbol <chr>, open <dbl>, high <dbl>, low <dbl>,
    ## #   close <dbl>, volume <dbl>, adjusted <dbl>

``` r
split = initial_split(stonks, prop=5/6)
trs_ = training(split)
ts_ = testing(split)
trs_
```

    ## # A tibble: 312 × 20
    ##    created_at anger anticipation disgust  fear   joy negative positive sadness
    ##    <date>     <dbl>        <dbl>   <dbl> <dbl> <dbl>    <dbl>    <dbl>   <dbl>
    ##  1 2021-11-03    31           31      13    46    24       77      115      25
    ##  2 2021-11-21    38           38      17    49    56       84      117      45
    ##  3 2021-03-20     0            0       0     2     0        1        5       0
    ##  4 2021-10-30    26           26      10    46    35       70       97      28
    ##  5 2021-04-12     0            0       0     0     0        0        1       0
    ##  6 2020-11-02     0            0       0     0     0        2        0       2
    ##  7 2021-05-08     0            0       0     0     0        0        0       0
    ##  8 2020-12-28     0            0       0     0     1        0        1       0
    ##  9 2021-09-14     7            7       3    11    11       20       41       7
    ## 10 2021-09-12     0            0       0     0     0        3        2       1
    ## # … with 302 more rows, and 11 more variables: surprise <dbl>, trust <dbl>,
    ## #   AAPL <dbl>, date <date>, symbol <chr>, open <dbl>, high <dbl>, low <dbl>,
    ## #   close <dbl>, volume <dbl>, adjusted <dbl>
…
``` r
logit_fit = basicwork %>% fit(trs_)
p = predict(logit_fit, ts_) %>%  bind_cols(ts_ %>% select(adjusted))
```

    ## Warning in predict.lm(object = object$fit, newdata = new_data, type =
    ## "response"): prediction from a rank-deficient fit may be misleading

``` r
p
```

    ## # A tibble: 63 × 2
    ##    .pred adjusted
    ##    <dbl>    <dbl>
    ##  1  132.     114.
    ##  2  133.     136.
    ##  3  137.     119.
    ##  4  133.     120.
    ##  5  134.     117.
    ##  6  134.     117.
    ##  7  133.     116.
    ##  8  133.     136.
    ##  9  133.     122.
    ## 10  134.     122.
    ## # … with 53 more rows
…
    ## 
    ## Attaching package: 'modeltime'

    ## The following object is masked from 'package:TTR':
    ## 
    ##     growth

``` r
stonks
```

    ## # A tibble: 375 × 20
    ##    created_at anger anticipation disgust  fear   joy negative positive sadness
    ##    <date>     <dbl>        <dbl>   <dbl> <dbl> <dbl>    <dbl>    <dbl>   <dbl>
    ##  1 2020-10-28     1            1       3     1     0        4        2       1
    ##  2 2020-10-29     2            2       0     2     3        3       10       3
    ##  3 2020-10-30     4            4       3     5     2        7        8       3
    ##  4 2020-10-31     0            0       0     1     2        1        5       0
    ##  5 2020-11-01     1            1       0     1     2        1        8       0
    ##  6 2020-11-02     0            0       0     0     0        2        0       2
    ##  7 2020-11-03     5            5       1     2     6       10       11       3
    ##  8 2020-11-04     4            4       2     4     0        7        4       1
    ##  9 2020-11-05     2            2       2     1     3        5        9       2
    ## 10 2020-11-06     4            4       2     4     8        9       12       5
    ## # … with 365 more rows, and 11 more variables: surprise <dbl>, trust <dbl>,
    ## #   AAPL <dbl>, date <date>, symbol <chr>, open <dbl>, high <dbl>, low <dbl>,
    ## #   close <dbl>, volume <dbl>, adjusted <dbl>
…
